%YAML 1.1
%TAG !u! tag:unity3d.com,2011:
--- !u!29 &1
OcclusionCullingSettings:
  m_ObjectHideFlags: 0
  serializedVersion: 2
  m_OcclusionBakeSettings:
    smallestOccluder: 5
    smallestHole: 0.25
    backfaceThreshold: 100
  m_SceneGUID: 00000000000000000000000000000000
  m_OcclusionCullingData: {fileID: 0}
--- !u!104 &2
RenderSettings:
  m_ObjectHideFlags: 0
  serializedVersion: 8
  m_Fog: 0
  m_FogColor: {r: 0.5, g: 0.5, b: 0.5, a: 1}
  m_FogMode: 3
  m_FogDensity: 0.01
  m_LinearFogStart: 0
  m_LinearFogEnd: 300
  m_AmbientSkyColor: {r: 0.2, g: 0.2, b: 0.2, a: 1}
  m_AmbientEquatorColor: {r: 0.2, g: 0.2, b: 0.2, a: 1}
  m_AmbientGroundColor: {r: 0.2, g: 0.2, b: 0.2, a: 1}
  m_AmbientIntensity: 1
  m_AmbientMode: 3
  m_SubtractiveShadowColor: {r: 0.42, g: 0.478, b: 0.627, a: 1}
  m_SkyboxMaterial: {fileID: 0}
  m_HaloStrength: 0.5
  m_FlareStrength: 1
  m_FlareFadeSpeed: 3
  m_HaloTexture: {fileID: 0}
  m_SpotCookie: {fileID: 10001, guid: 0000000000000000e000000000000000, type: 0}
  m_DefaultReflectionMode: 0
  m_DefaultReflectionResolution: 128
  m_ReflectionBounces: 1
  m_ReflectionIntensity: 1
  m_CustomReflection: {fileID: 0}
  m_Sun: {fileID: 0}
  m_IndirectSpecularColor: {r: 0, g: 0, b: 0, a: 1}
--- !u!157 &4
LightmapSettings:
  m_ObjectHideFlags: 0
  serializedVersion: 11
  m_GIWorkflowMode: 1
  m_GISettings:
    serializedVersion: 2
    m_BounceScale: 1
    m_IndirectOutputScale: 1
    m_AlbedoBoost: 1
    m_TemporalCoherenceThreshold: 1
    m_EnvironmentLightingMode: 0
    m_EnableBakedLightmaps: 1
    m_EnableRealtimeLightmaps: 0
  m_LightmapEditorSettings:
    serializedVersion: 9
    m_Resolution: 1
    m_BakeResolution: 50
    m_TextureWidth: 1024
    m_TextureHeight: 1024
    m_AO: 0
    m_AOMaxDistance: 1
    m_CompAOExponent: 0
    m_CompAOExponentDirect: 0
    m_Padding: 2
    m_LightmapParameters: {fileID: 0}
    m_LightmapsBakeMode: 1
    m_TextureCompression: 0
    m_FinalGather: 0
    m_FinalGatherFiltering: 1
    m_FinalGatherRayCount: 1024
    m_ReflectionCompression: 2
    m_MixedBakeMode: 1
    m_BakeBackend: 0
    m_PVRSampling: 1
    m_PVRDirectSampleCount: 32
    m_PVRSampleCount: 500
    m_PVRBounces: 2
    m_PVRFilterTypeDirect: 0
    m_PVRFilterTypeIndirect: 0
    m_PVRFilterTypeAO: 0
    m_PVRFilteringMode: 0
    m_PVRCulling: 1
    m_PVRFilteringGaussRadiusDirect: 1
    m_PVRFilteringGaussRadiusIndirect: 5
    m_PVRFilteringGaussRadiusAO: 2
    m_PVRFilteringAtrousPositionSigmaDirect: 0.5
    m_PVRFilteringAtrousPositionSigmaIndirect: 2
    m_PVRFilteringAtrousPositionSigmaAO: 1
    m_ShowResolutionOverlay: 1
  m_LightingDataAsset: {fileID: 0}
  m_UseShadowmask: 0
--- !u!196 &5
NavMeshSettings:
  serializedVersion: 2
  m_ObjectHideFlags: 0
  m_BuildSettings:
    serializedVersion: 2
    agentTypeID: 0
    agentRadius: 0.5
    agentHeight: 2
    agentSlope: 45
    agentClimb: 0.4
    ledgeDropHeight: 0
    maxJumpAcrossDistance: 0
    minRegionArea: 2
    manualCellSize: 0
    cellSize: 0.16666666
    manualTileSize: 0
    tileSize: 256
    accuratePlacement: 0
    debug:
      m_Flags: 0
  m_NavMeshData: {fileID: 0}
--- !u!1 &59909364
GameObject:
  m_ObjectHideFlags: 0
  m_PrefabParentObject: {fileID: 0}
  m_PrefabInternal: {fileID: 0}
  serializedVersion: 5
  m_Component:
  - component: {fileID: 59909365}
  - component: {fileID: 59909366}
  - component: {fileID: 59909368}
  - component: {fileID: 59909369}
  - component: {fileID: 59909367}
  - component: {fileID: 59909370}
  m_Layer: 0
  m_Name: Main Camera
  m_TagString: MainCamera
  m_Icon: {fileID: 0}
  m_NavMeshLayer: 0
  m_StaticEditorFlags: 0
  m_IsActive: 1
--- !u!4 &59909365
Transform:
  m_ObjectHideFlags: 0
  m_PrefabParentObject: {fileID: 0}
  m_PrefabInternal: {fileID: 0}
  m_GameObject: {fileID: 59909364}
  m_LocalRotation: {x: 0, y: 0, z: 0, w: 1}
  m_LocalPosition: {x: 0, y: 1, z: -10}
  m_LocalScale: {x: 1, y: 1, z: 1}
  m_Children: []
  m_Father: {fileID: 0}
  m_RootOrder: 1
  m_LocalEulerAnglesHint: {x: 0, y: 0, z: 0}
--- !u!20 &59909366
Camera:
  m_ObjectHideFlags: 0
  m_PrefabParentObject: {fileID: 0}
  m_PrefabInternal: {fileID: 0}
  m_GameObject: {fileID: 59909364}
  m_Enabled: 1
  serializedVersion: 2
  m_ClearFlags: 1
  m_BackGroundColor: {r: 0.19215687, g: 0.3019608, b: 0.4745098, a: 0.019607844}
  m_NormalizedViewPortRect:
    serializedVersion: 2
    x: 0
    y: 0
    width: 1
    height: 1
  near clip plane: 0.3
  far clip plane: 1000
  field of view: 60
  orthographic: 0
  orthographic size: 100
  m_Depth: -1
  m_CullingMask:
    serializedVersion: 2
    m_Bits: 4294967295
  m_RenderingPath: -1
  m_TargetTexture: {fileID: 0}
  m_TargetDisplay: 0
  m_TargetEye: 3
  m_HDR: 0
  m_AllowMSAA: 1
  m_AllowDynamicResolution: 0
  m_ForceIntoRT: 0
  m_OcclusionCulling: 1
  m_StereoConvergence: 10
  m_StereoSeparation: 0.022
--- !u!81 &59909367
AudioListener:
  m_ObjectHideFlags: 0
  m_PrefabParentObject: {fileID: 0}
  m_PrefabInternal: {fileID: 0}
  m_GameObject: {fileID: 59909364}
  m_Enabled: 1
--- !u!92 &59909368
Behaviour:
  m_ObjectHideFlags: 0
  m_PrefabParentObject: {fileID: 0}
  m_PrefabInternal: {fileID: 0}
  m_GameObject: {fileID: 59909364}
  m_Enabled: 1
--- !u!124 &59909369
Behaviour:
  m_ObjectHideFlags: 0
  m_PrefabParentObject: {fileID: 0}
  m_PrefabInternal: {fileID: 0}
  m_GameObject: {fileID: 59909364}
  m_Enabled: 1
--- !u!114 &59909370
MonoBehaviour:
  m_ObjectHideFlags: 0
  m_PrefabParentObject: {fileID: 0}
  m_PrefabInternal: {fileID: 0}
  m_GameObject: {fileID: 59909364}
  m_Enabled: 1
  m_EditorHideFlags: 0
  m_Script: {fileID: 11500000, guid: 5ea190a2945678944817999012b865dd, type: 3}
  m_Name: 
  m_EditorClassIdentifier: 
  icon: {fileID: 2800000, guid: 20ef0fdd226374f4aacde07b76c55cd0, type: 3}
--- !u!1 &440726231
GameObject:
  m_ObjectHideFlags: 0
  m_PrefabParentObject: {fileID: 100000, guid: d65b5b8b42ae8f54780d300fb8a1b82b, type: 2}
  m_PrefabInternal: {fileID: 1307043284}
  serializedVersion: 5
  m_Component:
  - component: {fileID: 440726235}
  - component: {fileID: 440726234}
  - component: {fileID: 440726233}
  - component: {fileID: 440726232}
  m_Layer: 0
  m_Name: SoundManager
  m_TagString: Untagged
  m_Icon: {fileID: 0}
  m_NavMeshLayer: 0
  m_StaticEditorFlags: 0
  m_IsActive: 1
--- !u!82 &440726232
AudioSource:
  m_ObjectHideFlags: 0
  m_PrefabParentObject: {fileID: 8200000, guid: d65b5b8b42ae8f54780d300fb8a1b82b,
    type: 2}
  m_PrefabInternal: {fileID: 1307043284}
  m_GameObject: {fileID: 440726231}
  m_Enabled: 1
  serializedVersion: 4
  OutputAudioMixerGroup: {fileID: 0}
  m_audioClip: {fileID: 0}
  m_PlayOnAwake: 1
  m_Volume: 0
  m_Pitch: 1
  Loop: 0
  Mute: 0
  Spatialize: 0
  SpatializePostEffects: 0
  Priority: 128
  DopplerLevel: 1
  MinDistance: 1
  MaxDistance: 500
  Pan2D: 0
  rolloffMode: 0
  BypassEffects: 0
  BypassListenerEffects: 0
  BypassReverbZones: 0
  rolloffCustomCurve:
    serializedVersion: 2
    m_Curve:
    - serializedVersion: 2
      time: 0
      value: 1
      inSlope: 0
      outSlope: 0
      tangentMode: 0
    - serializedVersion: 2
      time: 1
      value: 0
      inSlope: 0
      outSlope: 0
      tangentMode: 0
    m_PreInfinity: 2
    m_PostInfinity: 2
    m_RotationOrder: 4
  panLevelCustomCurve:
    serializedVersion: 2
    m_Curve:
    - serializedVersion: 2
      time: 0
      value: 0
      inSlope: 0
      outSlope: 0
      tangentMode: 0
    m_PreInfinity: 2
    m_PostInfinity: 2
    m_RotationOrder: 4
  spreadCustomCurve:
    serializedVersion: 2
    m_Curve:
    - serializedVersion: 2
      time: 0
      value: 0
      inSlope: 0
      outSlope: 0
      tangentMode: 0
    m_PreInfinity: 2
    m_PostInfinity: 2
    m_RotationOrder: 4
  reverbZoneMixCustomCurve:
    serializedVersion: 2
    m_Curve:
    - serializedVersion: 2
      time: 0
      value: 1
      inSlope: 0
      outSlope: 0
      tangentMode: 0
    m_PreInfinity: 2
    m_PostInfinity: 2
    m_RotationOrder: 4
--- !u!82 &440726233
AudioSource:
  m_ObjectHideFlags: 0
  m_PrefabParentObject: {fileID: 8200002, guid: d65b5b8b42ae8f54780d300fb8a1b82b,
    type: 2}
  m_PrefabInternal: {fileID: 1307043284}
  m_GameObject: {fileID: 440726231}
  m_Enabled: 1
  serializedVersion: 4
  OutputAudioMixerGroup: {fileID: 0}
  m_audioClip: {fileID: 0}
  m_PlayOnAwake: 1
  m_Volume: 0
  m_Pitch: 1
  Loop: 0
  Mute: 0
  Spatialize: 0
  SpatializePostEffects: 0
  Priority: 128
  DopplerLevel: 1
  MinDistance: 1
  MaxDistance: 500
  Pan2D: 0
  rolloffMode: 0
  BypassEffects: 0
  BypassListenerEffects: 0
  BypassReverbZones: 0
  rolloffCustomCurve:
    serializedVersion: 2
    m_Curve:
    - serializedVersion: 2
      time: 0
      value: 1
      inSlope: 0
      outSlope: 0
      tangentMode: 0
    - serializedVersion: 2
      time: 1
      value: 0
      inSlope: 0
      outSlope: 0
      tangentMode: 0
    m_PreInfinity: 2
    m_PostInfinity: 2
    m_RotationOrder: 4
  panLevelCustomCurve:
    serializedVersion: 2
    m_Curve:
    - serializedVersion: 2
      time: 0
      value: 0
      inSlope: 0
      outSlope: 0
      tangentMode: 0
    m_PreInfinity: 2
    m_PostInfinity: 2
    m_RotationOrder: 4
  spreadCustomCurve:
    serializedVersion: 2
    m_Curve:
    - serializedVersion: 2
      time: 0
      value: 0
      inSlope: 0
      outSlope: 0
      tangentMode: 0
    m_PreInfinity: 2
    m_PostInfinity: 2
    m_RotationOrder: 4
  reverbZoneMixCustomCurve:
    serializedVersion: 2
    m_Curve:
    - serializedVersion: 2
      time: 0
      value: 1
      inSlope: 0
      outSlope: 0
      tangentMode: 0
    m_PreInfinity: 2
    m_PostInfinity: 2
    m_RotationOrder: 4
--- !u!114 &440726234
MonoBehaviour:
  m_ObjectHideFlags: 0
  m_PrefabParentObject: {fileID: 11400000, guid: d65b5b8b42ae8f54780d300fb8a1b82b,
    type: 2}
  m_PrefabInternal: {fileID: 1307043284}
  m_GameObject: {fileID: 440726231}
  m_Enabled: 1
  m_EditorHideFlags: 0
  m_Script: {fileID: 11500000, guid: 617da7e6dc6c82f43988a70b1b7fd69e, type: 3}
  m_Name: 
  m_EditorClassIdentifier: 
  helpOn: 0
  showInfo: 1
  showDev: 1
  showList: 1
  showAdd: 1
  showSFX: 1
  showSFXDetails: 
  groupAddIndex: 0
  autoPrepoolAmount: 0
  autoBaseVolume: 1
  autoVolumeVariation: 0
  autoPitchVariation: 0
  showAsGrouped: 0
  soundConnections:
  - level: SyncTrack1
    isCustomLevel: 1
    soundsToPlay:
    - {fileID: 8300000, guid: 26457f31cb88d354780bf66bc7b93b48, type: 3}
    - {fileID: 8300000, guid: 17de7e50c3bed634795c6c40f9d3c29d, type: 3}
    baseVolumes:
    - 1
    - 1
    playMethod: 0
    minDelay: 0
    maxDelay: 0
    delay: 0
  - level: SyncTrack2
    isCustomLevel: 1
    soundsToPlay:
    - {fileID: 8300000, guid: bf7ca415c8c6c5e45bf75fcbcc5bc03b, type: 3}
    - {fileID: 8300000, guid: 9eef04c802681b34ea47b668f8e005df, type: 3}
    baseVolumes:
    - 1
    - 1
    playMethod: 0
    minDelay: 0
    maxDelay: 0
    delay: 0
  audios:
  - {fileID: 440726233}
  - {fileID: 440726232}
  currentLevel: 
  currentSoundConnection:
    level: 
    isCustomLevel: 0
    soundsToPlay: []
    baseVolumes: []
    playMethod: 0
    minDelay: 0
    maxDelay: 0
    delay: 0
  crossDuration: 0
  showDebug: 1
  offTheBGM: 0
  isPaused: 0
  movingOnFromSong: 0
  ignoreLevelLoad: 1
  resourcesPath: Sounds/SFX
  storedSFXs: []
  unOwnedSFXObjects: []
  sfxGroups: []
  clipToGroupKeys: []
  clipToGroupValues: []
  offTheSFX: 0
  capAmount: 3
  sfxPrePoolAmounts: 
  sfxBaseVolumes: []
  sfxVolumeVariations: []
  sfxPitchVariations: []
  SFXObjectLifetime: 10
  currentPockets:
  - Default
  defaultSFXSpatialBlend: 0
--- !u!4 &440726235
Transform:
  m_ObjectHideFlags: 0
  m_PrefabParentObject: {fileID: 400000, guid: d65b5b8b42ae8f54780d300fb8a1b82b, type: 2}
  m_PrefabInternal: {fileID: 1307043284}
  m_GameObject: {fileID: 440726231}
  m_LocalRotation: {x: 0, y: 0, z: 0, w: 1}
  m_LocalPosition: {x: 0, y: 0, z: 0}
  m_LocalScale: {x: 1, y: 1, z: 1}
  m_Children: []
  m_Father: {fileID: 0}
  m_RootOrder: 0
  m_LocalEulerAnglesHint: {x: 0, y: 0, z: 0}
--- !u!1001 &1307043284
Prefab:
  m_ObjectHideFlags: 0
  serializedVersion: 2
  m_Modification:
    m_TransformParent: {fileID: 0}
    m_Modifications:
    - target: {fileID: 11400000, guid: d65b5b8b42ae8f54780d300fb8a1b82b, type: 2}
      propertyPath: soundConnections.Array.size
      value: 2
      objectReference: {fileID: 0}
    - target: {fileID: 11400000, guid: d65b5b8b42ae8f54780d300fb8a1b82b, type: 2}
      propertyPath: soundConnections.Array.data[0].baseVolumes.Array.size
      value: 2
      objectReference: {fileID: 0}
    - target: {fileID: 11400000, guid: d65b5b8b42ae8f54780d300fb8a1b82b, type: 2}
      propertyPath: soundConnections.Array.data[1].baseVolumes.Array.size
      value: 2
      objectReference: {fileID: 0}
    - target: {fileID: 11400000, guid: d65b5b8b42ae8f54780d300fb8a1b82b, type: 2}
      propertyPath: soundConnections.Array.data[0].soundsToPlay.Array.size
      value: 2
      objectReference: {fileID: 0}
    - target: {fileID: 11400000, guid: d65b5b8b42ae8f54780d300fb8a1b82b, type: 2}
      propertyPath: soundConnections.Array.data[1].soundsToPlay.Array.size
      value: 2
      objectReference: {fileID: 0}
    - target: {fileID: 400000, guid: d65b5b8b42ae8f54780d300fb8a1b82b, type: 2}
      propertyPath: m_LocalPosition.x
      value: 0
      objectReference: {fileID: 0}
    - target: {fileID: 400000, guid: d65b5b8b42ae8f54780d300fb8a1b82b, type: 2}
      propertyPath: m_LocalPosition.y
      value: 0
      objectReference: {fileID: 0}
    - target: {fileID: 400000, guid: d65b5b8b42ae8f54780d300fb8a1b82b, type: 2}
      propertyPath: m_LocalPosition.z
      value: 0
      objectReference: {fileID: 0}
    - target: {fileID: 400000, guid: d65b5b8b42ae8f54780d300fb8a1b82b, type: 2}
      propertyPath: m_LocalRotation.x
      value: 0
      objectReference: {fileID: 0}
    - target: {fileID: 400000, guid: d65b5b8b42ae8f54780d300fb8a1b82b, type: 2}
      propertyPath: m_LocalRotation.y
      value: 0
      objectReference: {fileID: 0}
    - target: {fileID: 400000, guid: d65b5b8b42ae8f54780d300fb8a1b82b, type: 2}
      propertyPath: m_LocalRotation.z
      value: 0
      objectReference: {fileID: 0}
    - target: {fileID: 400000, guid: d65b5b8b42ae8f54780d300fb8a1b82b, type: 2}
      propertyPath: m_LocalRotation.w
      value: 1
      objectReference: {fileID: 0}
    - target: {fileID: 11400000, guid: d65b5b8b42ae8f54780d300fb8a1b82b, type: 2}
      propertyPath: soundConnections.Array.data[0].level
      value: SyncTrack1
      objectReference: {fileID: 0}
    - target: {fileID: 11400000, guid: d65b5b8b42ae8f54780d300fb8a1b82b, type: 2}
      propertyPath: soundConnections.Array.data[0].isCustomLevel
      value: 1
      objectReference: {fileID: 0}
    - target: {fileID: 11400000, guid: d65b5b8b42ae8f54780d300fb8a1b82b, type: 2}
      propertyPath: soundConnections.Array.data[0].soundsToPlay.Array.data[0]
      value: 
      objectReference: {fileID: 8300000, guid: 26457f31cb88d354780bf66bc7b93b48, type: 3}
    - target: {fileID: 11400000, guid: d65b5b8b42ae8f54780d300fb8a1b82b, type: 2}
      propertyPath: soundConnections.Array.data[0].soundsToPlay.Array.data[1]
      value: 
      objectReference: {fileID: 8300000, guid: 17de7e50c3bed634795c6c40f9d3c29d, type: 3}
    - target: {fileID: 11400000, guid: d65b5b8b42ae8f54780d300fb8a1b82b, type: 2}
      propertyPath: soundConnections.Array.data[1].level
      value: SyncTrack2
      objectReference: {fileID: 0}
    - target: {fileID: 11400000, guid: d65b5b8b42ae8f54780d300fb8a1b82b, type: 2}
      propertyPath: soundConnections.Array.data[1].isCustomLevel
      value: 1
      objectReference: {fileID: 0}
    - target: {fileID: 11400000, guid: d65b5b8b42ae8f54780d300fb8a1b82b, type: 2}
      propertyPath: soundConnections.Array.data[1].soundsToPlay.Array.data[0]
      value: 
      objectReference: {fileID: 8300000, guid: bf7ca415c8c6c5e45bf75fcbcc5bc03b, type: 3}
    - target: {fileID: 11400000, guid: d65b5b8b42ae8f54780d300fb8a1b82b, type: 2}
      propertyPath: soundConnections.Array.data[1].soundsToPlay.Array.data[1]
      value: 
      objectReference: {fileID: 8300000, guid: 9eef04c802681b34ea47b668f8e005df, type: 3}
    - target: {fileID: 11400000, guid: d65b5b8b42ae8f54780d300fb8a1b82b, type: 2}
      propertyPath: crossDuration
      value: 0
      objectReference: {fileID: 0}
    - target: {fileID: 11400000, guid: d65b5b8b42ae8f54780d300fb8a1b82b, type: 2}
      propertyPath: ignoreLevelLoad
      value: 1
      objectReference: {fileID: 0}
    - target: {fileID: 11400000, guid: d65b5b8b42ae8f54780d300fb8a1b82b, type: 2}
      propertyPath: soundConnections.Array.data[0].baseVolumes.Array.data[0]
      value: 1
      objectReference: {fileID: 0}
    - target: {fileID: 11400000, guid: d65b5b8b42ae8f54780d300fb8a1b82b, type: 2}
      propertyPath: soundConnections.Array.data[0].baseVolumes.Array.data[1]
      value: 1
      objectReference: {fileID: 0}
    - target: {fileID: 11400000, guid: d65b5b8b42ae8f54780d300fb8a1b82b, type: 2}
      propertyPath: soundConnections.Array.data[1].baseVolumes.Array.data[0]
      value: 1
      objectReference: {fileID: 0}
    - target: {fileID: 11400000, guid: d65b5b8b42ae8f54780d300fb8a1b82b, type: 2}
      propertyPath: soundConnections.Array.data[1].baseVolumes.Array.data[1]
      value: 1
      objectReference: {fileID: 0}
    m_RemovedComponents: []
  m_ParentPrefab: {fileID: 100100000, guid: d65b5b8b42ae8f54780d300fb8a1b82b, type: 2}
  m_RootGameObject: {fileID: 440726231}
  m_IsPrefabParent: 0
