%YAML 1.1
%TAG !u! tag:unity3d.com,2011:
--- !u!1045 &1
EditorBuildSettings:
  m_ObjectHideFlags: 0
  serializedVersion: 2
  m_Scenes:
  - enabled: 0
    path: Assets/Scene/start.unity
    guid: b92fe4f63914ad3458f405f5605b7e9d
  - enabled: 1
    path: Assets/Scene/title.unity
    guid: c402bdb379020b043a1ccdd191bb70d6
  - enabled: 1
    path: Assets/Scene/main.unity
    guid: bbc04ddc233e2754883603fe3a55bebf
  - enabled: 1
    path: Assets/Scene/intro.unity
    guid: 242bca400d6caf9418e39e81ba26fc87
  - enabled: 1
    path: Assets/Scene/game.unity
    guid: 315ae0bed862ea0429b3b68b383350bc
  - enabled: 0
    path: Assets/Scene/ending.unity
    guid: c2554baa4e5d44c4ab66fa92b27bd8ef
