%YAML 1.1
%TAG !u! tag:unity3d.com,2011:
--- !u!78 &1
TagManager:
  serializedVersion: 2
  tags:
  - Boss
  - Section
  - Bullet
  - Enemy
  - BackGround
  - PlayerShot
  - Monster
  - BossShield
  - PBullet
  - Home
  - bLaser
  - EBullet
  - PlayerShield
  - Shield
  layers:
  - Default
  - TransparentFX
  - Ignore Raycast
  - 
  - Water
  - UI
  - 
  - 
  - Player
  - Enemy
  - PlayerAttack
  - EnemyAttack
  - 
  - 
  - 
  - 
  - 
  - 
  - 
  - 
  - 
  - 
  - 
  - 
  - 
  - 
  - 
  - 
  - 
  - 
  - 
  - 
  m_SortingLayers:
  - name: Default
    uniqueID: 0
    locked: 0
