%YAML 1.1
%TAG !u! tag:unity3d.com,2011:
--- !u!74 &7400000
AnimationClip:
  m_ObjectHideFlags: 0
  m_PrefabParentObject: {fileID: 0}
  m_PrefabInternal: {fileID: 0}
  m_Name: effect_heal
  serializedVersion: 6
  m_Legacy: 0
  m_Compressed: 0
  m_UseHighQualityCurve: 1
  m_RotationCurves: []
  m_CompressedRotationCurves: []
  m_EulerCurves: []
  m_PositionCurves: []
  m_ScaleCurves: []
  m_FloatCurves: []
  m_PPtrCurves:
  - curve:
    - time: 0
      value: {fileID: 21300000, guid: c355535ac90864d4f9435977d6e588a9, type: 3}
    - time: 0.15
      value: {fileID: 21300000, guid: daefddf07291e0842bd353b5b1b1215f, type: 3}
    - time: 0.25
      value: {fileID: 21300000, guid: 3e5c5b9b5f0d0584abf3021eaa50ae66, type: 3}
    - time: 0.3
      value: {fileID: 21300000, guid: 5d6025eba3fabcd43b39de8e6fd80cd1, type: 3}
    - time: 0.35
      value: {fileID: 21300000, guid: 3e5c5b9b5f0d0584abf3021eaa50ae66, type: 3}
    - time: 0.4
      value: {fileID: 21300000, guid: 5d6025eba3fabcd43b39de8e6fd80cd1, type: 3}
    - time: 0.6
      value: {fileID: 21300000, guid: 5d6025eba3fabcd43b39de8e6fd80cd1, type: 3}
    attribute: m_Sprite
    path: 
    classID: 212
    script: {fileID: 0}
  m_SampleRate: 20
  m_WrapMode: 0
  m_Bounds:
    m_Center: {x: 0, y: 0, z: 0}
    m_Extent: {x: 0, y: 0, z: 0}
  m_ClipBindingConstant:
    genericBindings:
    - serializedVersion: 2
      path: 0
      attribute: 0
      script: {fileID: 0}
      typeID: 212
      customType: 23
      isPPtrCurve: 1
    pptrCurveMapping:
    - {fileID: 21300000, guid: c355535ac90864d4f9435977d6e588a9, type: 3}
    - {fileID: 21300000, guid: daefddf07291e0842bd353b5b1b1215f, type: 3}
    - {fileID: 21300000, guid: 3e5c5b9b5f0d0584abf3021eaa50ae66, type: 3}
    - {fileID: 21300000, guid: 5d6025eba3fabcd43b39de8e6fd80cd1, type: 3}
    - {fileID: 21300000, guid: 3e5c5b9b5f0d0584abf3021eaa50ae66, type: 3}
    - {fileID: 21300000, guid: 5d6025eba3fabcd43b39de8e6fd80cd1, type: 3}
    - {fileID: 21300000, guid: 5d6025eba3fabcd43b39de8e6fd80cd1, type: 3}
  m_AnimationClipSettings:
    serializedVersion: 2
    m_AdditiveReferencePoseClip: {fileID: 0}
    m_AdditiveReferencePoseTime: 0
    m_StartTime: 0
    m_StopTime: 0.65000004
    m_OrientationOffsetY: 0
    m_Level: 0
    m_CycleOffset: 0
    m_HasAdditiveReferencePose: 0
    m_LoopTime: 0
    m_LoopBlend: 0
    m_LoopBlendOrientation: 0
    m_LoopBlendPositionY: 0
    m_LoopBlendPositionXZ: 0
    m_KeepOriginalOrientation: 0
    m_KeepOriginalPositionY: 1
    m_KeepOriginalPositionXZ: 0
    m_HeightFromFeet: 0
    m_Mirror: 0
  m_EditorCurves: []
  m_EulerEditorCurves: []
  m_HasGenericRootTransform: 0
  m_HasMotionFloatCurves: 0
  m_GenerateMotionCurves: 0
  m_Events: []
